{
  "spec_dir": "",
  "spec_files": [
    "**/*[sS]pec.js"
  ],
  "helpers": [
    "helpers/**/*.js"
  ],
  "stopSpecOnExpectationFailure": false,
  "random": true,
  "defaultTimeoutInterval": 1440000
}